EESchema Schematic File Version 4
EELAYER 30 0
EELAYER END
$Descr USLetter 11000 8500
encoding utf-8
Sheet 1 1
Title ""
Date ""
Rev ""
Comp ""
Comment1 ""
Comment2 ""
Comment3 ""
Comment4 ""
$EndDescr
Wire Wire Line
	3000 4400 3150 4400
Wire Wire Line
	2950 1200 3000 1200
Wire Wire Line
	3150 1950 3000 1950
Wire Wire Line
	3150 2000 3150 1950
Wire Wire Line
	2950 1100 3000 1100
$Comp
L DisplayTMCAdapter-eagle-import:HDR-2X5 EXP1
U 1 1 7F2C2830
P 2700 2800
F 0 "EXP1" H 2607 3398 50  0000 L TNN
F 1 "HDR-2X5" H 2700 2800 50  0001 C CNN
F 2 "DisplayTMCAdapter:HDR-2x5" H 2700 2800 50  0001 C CNN
F 3 "" H 2700 2800 50  0001 C CNN
	1    2700 2800
	1    0    0    -1  
$EndComp
$Comp
L DisplayTMCAdapter-eagle-import:HDR-2X5 EXP2
U 1 1 DBB6ABC1
P 2700 4050
F 0 "EXP2" H 2594 4648 50  0000 L TNN
F 1 "HDR-2X5" H 2700 4050 50  0001 C CNN
F 2 "DisplayTMCAdapter:HDR-2x5" H 2700 4050 50  0001 C CNN
F 3 "" H 2700 4050 50  0001 C CNN
	1    2700 4050
	1    0    0    -1  
$EndComp
$Comp
L DisplayTMCAdapter-eagle-import:HDR-1X18 AUX-4
U 1 1 2FBAEA9E
P 7100 3200
F 0 "AUX-4" H 6961 4198 50  0000 L TNN
F 1 "HDR-1X18" H 7100 3200 50  0001 C CNN
F 2 "DisplayTMCAdapter:HDR-1x18" H 7100 3200 50  0001 C CNN
F 3 "" H 7100 3200 50  0001 C CNN
	1    7100 3200
	1    0    0    -1  
$EndComp
$Comp
L DisplayTMCAdapter-eagle-import:HDR-2X4 AUX-3
U 1 1 30B27EDA
P 7100 4750
F 0 "AUX-3" H 6963 5249 50  0000 L TNN
F 1 "HDR-2X4" H 7100 4750 50  0001 C CNN
F 2 "DisplayTMCAdapter:HDR-2x4" H 7100 4750 50  0001 C CNN
F 3 "" H 7100 4750 50  0001 C CNN
	1    7100 4750
	1    0    0    -1  
$EndComp
$Comp
L DisplayTMCAdapter-eagle-import:HDR-2X5_2 AUX-2
U 1 1 AACA40C6
P 7100 5850
F 0 "AUX-2" H 6963 6449 50  0000 L TNN
F 1 "HDR-2X5_2" H 7100 5850 50  0001 C CNN
F 2 "DisplayTMCAdapter:HDR-2x5" H 7100 5850 50  0001 C CNN
F 3 "" H 7100 5850 50  0001 C CNN
	1    7100 5850
	1    0    0    -1  
$EndComp
$Comp
L DisplayTMCAdapter-eagle-import:HDR-1X4 TMC_X1
U 1 1 ED488C8A
P 2700 5150
F 0 "TMC_X1" H 2552 5449 50  0000 L TNN
F 1 "HDR-1X4" H 2700 5150 50  0001 C CNN
F 2 "DisplayTMCAdapter:HDR-1x4" H 2700 5150 50  0001 C CNN
F 3 "" H 2700 5150 50  0001 C CNN
	1    2700 5150
	1    0    0    -1  
$EndComp
$Comp
L DisplayTMCAdapter-eagle-import:HDR-1X4 TMC_Y1
U 1 1 6E1827D8
P 2700 5700
F 0 "TMC_Y1" H 2549 5999 50  0000 L TNN
F 1 "HDR-1X4" H 2700 5700 50  0001 C CNN
F 2 "DisplayTMCAdapter:HDR-1x4" H 2700 5700 50  0001 C CNN
F 3 "" H 2700 5700 50  0001 C CNN
	1    2700 5700
	1    0    0    -1  
$EndComp
$Comp
L DisplayTMCAdapter-eagle-import:HDR-1X4 TMC_Z0
U 1 1 F7402E8E
P 2700 6250
F 0 "TMC_Z0" H 2522 6549 50  0000 L TNN
F 1 "HDR-1X4" H 2700 6250 50  0001 C CNN
F 2 "DisplayTMCAdapter:HDR-1x4" H 2700 6250 50  0001 C CNN
F 3 "" H 2700 6250 50  0001 C CNN
	1    2700 6250
	1    0    0    -1  
$EndComp
$Comp
L DisplayTMCAdapter-eagle-import:HDR-1X4 TMC_E1
U 1 1 F1B9BF9D
P 2700 6800
F 0 "TMC_E1" H 2553 7099 50  0000 L TNN
F 1 "HDR-1X4" H 2700 6800 50  0001 C CNN
F 2 "DisplayTMCAdapter:HDR-1x4" H 2700 6800 50  0001 C CNN
F 3 "" H 2700 6800 50  0001 C CNN
	1    2700 6800
	1    0    0    -1  
$EndComp
$Comp
L DisplayTMCAdapter-eagle-import:HDR-1X4 TMC_Z1
U 1 1 F10F839A
P 2700 7350
F 0 "TMC_Z1" H 2535 7649 50  0000 L TNN
F 1 "HDR-1X4" H 2700 7350 50  0001 C CNN
F 2 "DisplayTMCAdapter:HDR-1x4" H 2700 7350 50  0001 C CNN
F 3 "" H 2700 7350 50  0001 C CNN
	1    2700 7350
	1    0    0    -1  
$EndComp
$Comp
L DisplayTMCAdapter-eagle-import:HDR-1X3 ZProbe1
U 1 1 B525FDBF
P 2700 1850
F 0 "ZProbe1" H 2549 2098 50  0000 L TNN
F 1 "HDR-1X3" H 2700 1850 50  0001 C CNN
F 2 "DisplayTMCAdapter:HDR-1x3" H 2700 1850 50  0001 C CNN
F 3 "" H 2700 1850 50  0001 C CNN
	1    2700 1850
	1    0    0    -1  
$EndComp
$Comp
L DisplayTMCAdapter-eagle-import:RES R1
U 1 1 E3FE3498
P 5000 1500
F 0 "R1" H 4963 1657 50  0000 L TNN
F 1 "22K" H 4921 1440 50  0000 L TNN
F 2 "DisplayTMCAdapter:RES-7.62_4x1.5" H 5000 1500 50  0001 C CNN
F 3 "" H 5000 1500 50  0001 C CNN
	1    5000 1500
	0    1    1    0   
$EndComp
$Comp
L DisplayTMCAdapter-eagle-import:RES R2
U 1 1 0F3C4881
P 5000 2100
F 0 "R2" H 4950 2257 50  0000 L TNN
F 1 "10K" H 4934 2040 50  0000 L TNN
F 2 "DisplayTMCAdapter:RES-7.62_4x1.5" H 5000 2100 50  0001 C CNN
F 3 "" H 5000 2100 50  0001 C CNN
	1    5000 2100
	0    1    1    0   
$EndComp
$Comp
L DisplayTMCAdapter-eagle-import:HDR-1X2_5 12V1
U 1 1 930E1B0F
P 2650 1150
F 0 "12V1" H 2582 1348 50  0000 L TNN
F 1 "HDR-1X2_5" H 2650 1150 50  0001 C CNN
F 2 "DisplayTMCAdapter:HDR-1x2" H 2650 1150 50  0001 C CNN
F 3 "" H 2650 1150 50  0001 C CNN
	1    2650 1150
	1    0    0    -1  
$EndComp
NoConn ~ 6800 2350
NoConn ~ 6800 2550
NoConn ~ 6800 2650
NoConn ~ 6800 2750
NoConn ~ 6800 2850
NoConn ~ 6800 3050
NoConn ~ 6800 5100
NoConn ~ 6800 5400
NoConn ~ 6800 5600
NoConn ~ 6800 6200
NoConn ~ 6800 6300
NoConn ~ 3000 4500
Text GLabel 3000 2350 2    50   UnSpc ~ 0
D37
Text GLabel 6800 3150 0    50   UnSpc ~ 0
D37
Text GLabel 3000 2450 2    50   UnSpc ~ 0
D35
Text GLabel 3000 2550 2    50   UnSpc ~ 0
D17
Text GLabel 3000 2650 2    50   UnSpc ~ 0
D16
Text GLabel 3000 2750 2    50   UnSpc ~ 0
D23
Text GLabel 3000 2850 2    50   UnSpc ~ 0
D25
Text GLabel 3000 2950 2    50   UnSpc ~ 0
D27
Text GLabel 3000 3050 2    50   UnSpc ~ 0
D29
Text GLabel 6800 3250 0    50   UnSpc ~ 0
D35
Text GLabel 6800 3950 0    50   UnSpc ~ 0
D17
Text GLabel 6800 4050 0    50   UnSpc ~ 0
D16
Text GLabel 6800 3850 0    50   UnSpc ~ 0
D23
Text GLabel 6800 3750 0    50   UnSpc ~ 0
D25
Text GLabel 6800 3650 0    50   UnSpc ~ 0
D27
Text GLabel 6800 3550 0    50   UnSpc ~ 0
D29
Text GLabel 3000 3600 2    50   UnSpc ~ 0
MISO
Text GLabel 3000 5550 2    50   UnSpc ~ 0
MISO
Text GLabel 3000 5000 2    50   UnSpc ~ 0
MISO
Text GLabel 3000 6100 2    50   UnSpc ~ 0
MISO
Text GLabel 3000 6650 2    50   UnSpc ~ 0
MISO
Text GLabel 3000 7200 2    50   UnSpc ~ 0
MISO
Text GLabel 6800 4600 0    50   UnSpc ~ 0
MISO
Text GLabel 3000 3700 2    50   UnSpc ~ 0
SCK
Text GLabel 3000 5200 2    50   UnSpc ~ 0
SCK
Text GLabel 3000 5750 2    50   UnSpc ~ 0
SCK
Text GLabel 3000 6300 2    50   UnSpc ~ 0
SCK
Text GLabel 3000 6850 2    50   UnSpc ~ 0
SCK
Text GLabel 3000 7400 2    50   UnSpc ~ 0
SCK
Text GLabel 6800 4800 0    50   UnSpc ~ 0
SCK
Text GLabel 3000 4100 2    50   UnSpc ~ 0
MOSI
Text GLabel 3000 5300 2    50   UnSpc ~ 0
MOSI
Text GLabel 3000 5850 2    50   UnSpc ~ 0
MOSI
Text GLabel 3000 6400 2    50   UnSpc ~ 0
MOSI
Text GLabel 3000 6950 2    50   UnSpc ~ 0
MOSI
Text GLabel 3000 7500 2    50   UnSpc ~ 0
MOSI
Text GLabel 6800 4700 0    50   UnSpc ~ 0
MOSI
Text GLabel 3000 3800 2    50   UnSpc ~ 0
D31
Text GLabel 3000 3900 2    50   UnSpc ~ 0
D53
Text GLabel 3000 4000 2    50   UnSpc ~ 0
D33
Text GLabel 3000 4200 2    50   UnSpc ~ 0
D49
Text GLabel 3000 4300 2    50   UnSpc ~ 0
D41
Text GLabel 6800 3450 0    50   UnSpc ~ 0
D31
Text GLabel 6800 4900 0    50   UnSpc ~ 0
D53
Text GLabel 6800 3350 0    50   UnSpc ~ 0
D33
Text GLabel 6800 4500 0    50   UnSpc ~ 0
D49
Text GLabel 6800 2950 0    50   UnSpc ~ 0
D41
Wire Wire Line
	3150 4450 3150 4400
Wire Wire Line
	6800 2450 6550 2450
Wire Wire Line
	6550 2500 6550 2450
$Comp
L power:GND #PWR0101
U 1 1 5F8B49B8
P 3150 4450
F 0 "#PWR0101" H 3150 4200 50  0001 C CNN
F 1 "GND" H 3155 4277 50  0000 C CNN
F 2 "" H 3150 4450 50  0001 C CNN
F 3 "" H 3150 4450 50  0001 C CNN
	1    3150 4450
	1    0    0    -1  
$EndComp
$Comp
L power:GND #PWR0102
U 1 1 5F8B4C59
P 6550 2500
F 0 "#PWR0102" H 6550 2250 50  0001 C CNN
F 1 "GND" H 6555 2327 50  0000 C CNN
F 2 "" H 6550 2500 50  0001 C CNN
F 3 "" H 6550 2500 50  0001 C CNN
	1    6550 2500
	1    0    0    -1  
$EndComp
$Comp
L power:GND #PWR0103
U 1 1 5F8B573C
P 6600 5000
F 0 "#PWR0103" H 6600 4750 50  0001 C CNN
F 1 "GND" H 6605 4827 50  0000 C CNN
F 2 "" H 6600 5000 50  0001 C CNN
F 3 "" H 6600 5000 50  0001 C CNN
	1    6600 5000
	1    0    0    -1  
$EndComp
Wire Wire Line
	6600 5000 6800 5000
$Comp
L power:GND #PWR0104
U 1 1 5F8B791C
P 3150 3300
F 0 "#PWR0104" H 3150 3050 50  0001 C CNN
F 1 "GND" H 3155 3127 50  0000 C CNN
F 2 "" H 3150 3300 50  0001 C CNN
F 3 "" H 3150 3300 50  0001 C CNN
	1    3150 3300
	1    0    0    -1  
$EndComp
Text GLabel 3000 5100 2    50   UnSpc ~ 0
D64
Text GLabel 3000 5650 2    50   UnSpc ~ 0
D63
Text GLabel 3000 6200 2    50   UnSpc ~ 0
D48
Text GLabel 3000 6750 2    50   UnSpc ~ 0
D42
Text GLabel 3000 7300 2    50   UnSpc ~ 0
D44
Text GLabel 6800 5800 0    50   UnSpc ~ 0
D64
Text GLabel 6800 5700 0    50   UnSpc ~ 0
D63
Text GLabel 6800 5900 0    50   UnSpc ~ 0
D48
Text GLabel 6800 6100 0    50   UnSpc ~ 0
D42
Text GLabel 6800 6000 0    50   UnSpc ~ 0
D44
$Comp
L power:GND #PWR0105
U 1 1 5F8B8430
P 3150 2000
F 0 "#PWR0105" H 3150 1750 50  0001 C CNN
F 1 "GND" H 3155 1827 50  0000 C CNN
F 2 "" H 3150 2000 50  0001 C CNN
F 3 "" H 3150 2000 50  0001 C CNN
	1    3150 2000
	1    0    0    -1  
$EndComp
$Comp
L power:+12V #PWR0106
U 1 1 5F8B89BD
P 3000 1050
F 0 "#PWR0106" H 3000 900 50  0001 C CNN
F 1 "+12V" H 3015 1223 50  0000 C CNN
F 2 "" H 3000 1050 50  0001 C CNN
F 3 "" H 3000 1050 50  0001 C CNN
	1    3000 1050
	1    0    0    -1  
$EndComp
Wire Wire Line
	3000 1100 3000 1050
$Comp
L power:GND #PWR0107
U 1 1 5F8B9EF0
P 3000 1250
F 0 "#PWR0107" H 3000 1000 50  0001 C CNN
F 1 "GND" H 3005 1077 50  0000 C CNN
F 2 "" H 3000 1250 50  0001 C CNN
F 3 "" H 3000 1250 50  0001 C CNN
	1    3000 1250
	1    0    0    -1  
$EndComp
Wire Wire Line
	3000 1250 3000 1200
$Comp
L power:+12V #PWR0108
U 1 1 5F8BAA68
P 3150 1750
F 0 "#PWR0108" H 3150 1600 50  0001 C CNN
F 1 "+12V" H 3165 1923 50  0000 C CNN
F 2 "" H 3150 1750 50  0001 C CNN
F 3 "" H 3150 1750 50  0001 C CNN
	1    3150 1750
	1    0    0    -1  
$EndComp
Wire Wire Line
	3150 1750 3000 1750
Wire Wire Line
	4500 1250 5000 1250
Wire Wire Line
	5000 1850 5000 1800
$Comp
L power:GND #PWR0109
U 1 1 5F8C19A9
P 5000 2400
F 0 "#PWR0109" H 5000 2150 50  0001 C CNN
F 1 "GND" H 5005 2227 50  0000 C CNN
F 2 "" H 5000 2400 50  0001 C CNN
F 3 "" H 5000 2400 50  0001 C CNN
	1    5000 2400
	1    0    0    -1  
$EndComp
Wire Wire Line
	5000 2400 5000 2350
$Comp
L power:GND #PWR0110
U 1 1 5F8C2627
P 6700 1900
F 0 "#PWR0110" H 6700 1650 50  0001 C CNN
F 1 "GND" H 6705 1727 50  0000 C CNN
F 2 "" H 6700 1900 50  0001 C CNN
F 3 "" H 6700 1900 50  0001 C CNN
	1    6700 1900
	1    0    0    -1  
$EndComp
Wire Wire Line
	6700 1900 6800 1900
Connection ~ 5000 1800
Wire Wire Line
	5000 1800 5000 1750
$Comp
L power:GND #PWR0111
U 1 1 5F8C3166
P 6500 5500
F 0 "#PWR0111" H 6500 5250 50  0001 C CNN
F 1 "GND" H 6505 5327 50  0000 C CNN
F 2 "" H 6500 5500 50  0001 C CNN
F 3 "" H 6500 5500 50  0001 C CNN
	1    6500 5500
	1    0    0    -1  
$EndComp
Wire Wire Line
	6500 5500 6800 5500
$Comp
L power:+5V #PWR0112
U 1 1 5F8C59CC
P 6700 4400
F 0 "#PWR0112" H 6700 4250 50  0001 C CNN
F 1 "+5V" H 6715 4573 50  0000 C CNN
F 2 "" H 6700 4400 50  0001 C CNN
F 3 "" H 6700 4400 50  0001 C CNN
	1    6700 4400
	1    0    0    -1  
$EndComp
Wire Wire Line
	6700 4400 6800 4400
$Comp
L power:+5V #PWR0113
U 1 1 5F8C7115
P 3250 3100
F 0 "#PWR0113" H 3250 2950 50  0001 C CNN
F 1 "+5V" H 3265 3273 50  0000 C CNN
F 2 "" H 3250 3100 50  0001 C CNN
F 3 "" H 3250 3100 50  0001 C CNN
	1    3250 3100
	1    0    0    -1  
$EndComp
Wire Wire Line
	3000 3250 3250 3250
Wire Wire Line
	3250 3250 3250 3100
Wire Wire Line
	3000 3150 3150 3150
Wire Wire Line
	3150 3150 3150 3300
$Comp
L DisplayTMCAdapter-eagle-import:HDR-1X2 ZMin1
U 1 1 18EE8195
P 7100 1850
F 0 "ZMin1" H 7010 2048 50  0000 L TNN
F 1 "HDR-1X2" H 7100 1850 50  0001 C CNN
F 2 "DisplayTMCAdapter:HDR-1x2" H 7100 1850 50  0001 C CNN
F 3 "" H 7100 1850 50  0001 C CNN
	1    7100 1850
	1    0    0    -1  
$EndComp
Wire Wire Line
	5000 1800 6800 1800
Wire Wire Line
	4500 1850 4500 1250
Wire Wire Line
	3000 1850 4500 1850
$EndSCHEMATC
