(module HDR-1x2 (layer F.Cu) (tedit 0)
  (fp_text reference 12V (at 0 0) (layer F.SilkS) hide
    (effects (font (size 1.27 1.27) (thickness 0.15)))
  )
  (fp_text value HDR-1X2 (at 0 0) (layer F.SilkS) hide
    (effects (font (size 1.27 1.27) (thickness 0.15)))
  )
  (fp_line (start 2.54 1.27) (end 2.54 -1.27) (layer F.SilkS) (width 0.25))
  (fp_line (start -2.54 1.27) (end 2.54 1.27) (layer F.SilkS) (width 0.25))
  (fp_line (start -2.54 1.27) (end -2.54 -1.27) (layer F.SilkS) (width 0.25))
  (fp_line (start -2.54 -1.27) (end 2.54 -1.27) (layer F.SilkS) (width 0.25))
  (pad 1 thru_hole rect (at -1.27 0) (size 1.5 1.5) (drill 0.9) (layers *.Cu *.Mask)
    (zone_connect 2))
  (pad 2 thru_hole circle (at 1.27 0) (size 1.5 1.5) (drill 0.9) (layers *.Cu *.Mask)
    (zone_connect 2))
)
